<?xml version="1.0" encoding="utf-8"?>
<!-- Generator: Adobe Illustrator 16.0.0, SVG Export Plug-In . SVG Version: 6.00 Build 0)  -->
<!DOCTYPE svg PUBLIC "-//W3C//DTD SVG 1.1//EN" "http://www.w3.org/Graphics/SVG/1.1/DTD/svg11.dtd">
<svg version="1.1" id="Layer_1" xmlns="http://www.w3.org/2000/svg" xmlns:xlink="http://www.w3.org/1999/xlink" x="0px" y="0px"
	 width="855px" height="202px" viewBox="0 0 855 202" enable-background="new 0 0 855 202" xml:space="preserve">
<g>
	<path fill="#147483" d="M100,191.876c-49.351,0-89.5-40.149-89.5-89.5s40.149-89.5,89.5-89.5c22.362,0,43.774,8.295,60.292,23.358
		c7.141,6.513,7.651,17.581,1.139,24.723c-6.513,7.141-17.582,7.651-24.723,1.139c-10.055-9.17-23.092-14.22-36.708-14.22
		c-30.051,0-54.5,24.449-54.5,54.5c0,30.052,24.449,54.5,54.5,54.5c13.617,0,26.653-5.05,36.708-14.219
		c7.142-6.514,18.21-6.003,24.723,1.138c6.513,7.141,6.003,18.209-1.138,24.722C143.776,183.58,122.364,191.876,100,191.876z"/>
</g>
<g>
	<path fill="#DF5B49" d="M756.999,191.876H712c-9.665,0-17.5-7.835-17.5-17.5v-144c0-9.665,7.835-17.5,17.5-17.5h44.999
		c49.352,0.001,89.501,40.151,89.501,89.5C846.499,151.727,806.349,191.876,756.999,191.876z M729.5,156.876h27.499
		c30.051,0,54.5-24.449,54.501-54.5c0-30.05-24.449-54.499-54.501-54.5H729.5V156.876z"/>
</g>
<g>
	<path fill="#E27A3D" d="M550,191.876c-9.665,0-17.5-7.835-17.5-17.5v-144c0-9.665,7.835-17.5,17.5-17.5l49.498-0.001
		c36.945,0.002,67.002,30.059,67.002,67.001c0,17.776-5.886,34.297-16.573,46.521c-3.842,4.394-8.211,8.13-12.996,11.161
		l24.443,24.444c6.835,6.834,6.835,17.914,0,24.748c-6.833,6.835-17.915,6.835-24.748,0l-45-45.001
		c-5.005-5.005-6.503-12.532-3.794-19.071s9.09-10.803,16.168-10.803c18.997,0,27.5-16.071,27.5-31.999
		c0-17.644-14.356-32-32.003-32.001l-31.997,0v126.5C567.5,184.041,559.665,191.876,550,191.876z"/>
</g>
<g>
	<path fill="none" d="M416,192v-35c-30.051,0-54.5-24.448-54.5-54.5c0-49.351-40.149-89.5-89.5-89.5v35
		c30.051,0,54.5,24.448,54.5,54.5C326.5,151.851,366.649,192,416,192z"/>
</g>
<g>
	<path fill="#EEC84C" d="M416,13v35c30.052,0,54.5,24.449,54.5,54.5c0,30.052-24.448,54.5-54.5,54.5
		c-24.323,0-44.97-16.019-51.96-38.059c-2.637,14.799-8.773,28.394-17.51,39.918C362.953,179.065,387.993,192,416,192
		c49.351,0,89.5-40.149,89.5-89.5S465.351,13,416,13z"/>
</g>
<g>
	<path fill="#43B19C" d="M341.466,46.135C325.042,25.933,300.005,13,272,13c-49.351,0-89.5,40.149-89.5,89.5S222.649,192,272,192
		v-35c-30.051,0-54.5-24.448-54.5-54.5c0-30.051,24.449-54.5,54.5-54.5c24.318,0,44.962,16.013,51.956,38.046
		C326.595,71.252,332.73,57.657,341.466,46.135z"/>
</g>
<g>
	<linearGradient id="SVGID_1_" gradientUnits="userSpaceOnUse" x1="254.5" y1="102.5" x2="433.5" y2="102.5">
		<stop  offset="0" style="stop-color:#43B19C"/>
		<stop  offset="0.9355" style="stop-color:#EEC84C"/>
	</linearGradient>
	<path fill="url(#SVGID_1_)" d="M272,192c-9.665,0-17.5-7.835-17.5-17.5S262.335,157,272,157c30.051,0,54.5-24.448,54.5-54.5
		c0-49.351,40.149-89.5,89.5-89.5c9.665,0,17.5,7.835,17.5,17.5S425.665,48,416,48c-30.051,0-54.5,24.449-54.5,54.5
		C361.5,151.851,321.351,192,272,192z"/>
</g>
</svg>
